dump.vcd
$date
	Wed May 27 15:31:46 2026
$end
$version
	Icarus Verilog
$end
$timescale
	1ps
$end
$scope module tb_SPI $end
$var wire 1 ! tb_MISO $end
$var reg 8 " send_data [7:0] $end
$var reg 1 # tb_CLK_ext $end
$var reg 1 $ tb_CS $end
$var reg 1 % tb_MOSI $end
$var reg 1 & tb_clk $end
$var reg 1 ' tb_rst $end
$var integer 32 ( i [31:0] $end
$scope module my_spi_module $end
$var wire 1 # CLK $end
$var wire 1 $ CS $end
$var wire 1 ! MISO $end
$var wire 1 % MOSI $end
$var wire 1 & clk $end
$var wire 1 ) clk_falling $end
$var wire 1 * clk_rising $end
$var wire 1 ' rst $end
$var reg 1 + CLK1 $end
$var reg 1 , CLK2 $end
$var reg 1 - CLK3 $end
$var reg 1 . CS1 $end
$var reg 1 / CS2 $end
$var reg 1 0 MOSI1 $end
$var reg 1 1 MOSI2 $end
$var reg 3 2 bit_cnt [2:0] $end
$var reg 8 3 data_rx [7:0] $end
$var reg 1 4 rx_done $end
$var reg 8 5 shift_reg [7:0] $end
$upscope $end
$upscope $end
$enddefinitions $end
$comment Show the parameter values. $end
$dumpall
$end
#0
$dumpvars
b0 5
04
b0 3
b0 2
11
10
1/
1.
1-
1,
1+
0*
0)
bx (
0'
0&
0%
1$
0#
b11001010 "
z!
$end
#10000
1&
#20000
0&
#30000
1&
#40000
0&
#50000
00
0+
1&
1'
#60000
0&
#70000
1)
01
0,
1&
#80000
0&
#90000
0)
0-
1&
#100000
0&
#110000
1&
#120000
0&
#130000
1&
#140000
0&
#150000
0.
1&
0$
#160000
0&
#170000
0/
1&
#180000
0&
#190000
1&
#200000
0&
#210000
1&
#220000
0&
#230000
1&
#240000
0&
#250000
1&
#260000
0&
#270000
1&
#280000
0&
#290000
1&
#300000
0&
#310000
1&
#320000
0&
#330000
1&
#340000
0&
#350000
10
1&
1%
b111 (
#360000
0&
#370000
11
1&
#380000
0&
#390000
1&
#400000
0&
#410000
1&
#420000
0&
#430000
1&
#440000
0&
#450000
1&
#460000
0&
#470000
1&
#480000
0&
#490000
1&
#500000
0&
#510000
1&
#520000
0&
#530000
1&
#540000
0&
#550000
1+
1&
1#
#560000
0&
#570000
1*
1,
1&
#580000
0&
#590000
0*
1-
b1 2
b1 5
1&
